Section 4 Figure 2 | Evolutionary tracking of allele-specific cancer haplotypes at single-cell resolution
…
Figure 4.11: Fraction of genome altered

4.9 Chromosome event rates

We also developed an approach to compute chromosome event rates using ancestral state reconstruction on the computed phylogenies. We used this to compare the rates of gains/losses and LOH. For the LOH calculation we don’t want to double count losses so we subtract the event rates of losses that result in a single copy. This gives us the event rate LOH where we end up with multiple copies, so copy neutral LOH and LOH + gains. The units of the rate are the number of events per effective cell division, in other words the per cell division rate scaled by the death rate of cells. It’s possible (perhaps likely) that many cells get chromosomal gains or losses but then die, we of course never sample such cells and this makes direct computation of the event rate per cell challenging. See Werner et al Nat. Comms. for discussion of a related problem.

We find an event rate of ~0.05 for gains and losses and ~0.01 for LOH.

chrs <- fread(config$parsimony)

chrs %>% filter(cn_input == "hscn") %>% pivot_wider(names_from = "type", values_from = "pars_score") %>% 
    mutate(loh = ifelse(loh - loss1copy < 0, 0, loh - loss1copy)) %>% pivot_longer(names_to = "type", 
    values_to = "pars_score", c("gain/loss", "loh", "gain", "loss", "loss1copy"))

## # A tibble: 3,450 x 8
##    nnodes ncells sample chr   totnnodes cn_input type      pars_score
##     <int>  <int> <chr>  <chr>     <int> <chr>    <chr>          <dbl>
##  1    611   1031 2295   1          1642 hscn     gain/loss        157
##  2    611   1031 2295   1          1642 hscn     loh               70
##  3    611   1031 2295   1          1642 hscn     gain              66
##  4    611   1031 2295   1          1642 hscn     loss              93
##  5    611   1031 2295   1          1642 hscn     loss1copy          0
##  6    611   1031 2295   10         1642 hscn     gain/loss        167
##  7    611   1031 2295   10         1642 hscn     loh                0
##  8    611   1031 2295   10         1642 hscn     gain              38
##  9    611   1031 2295   10         1642 hscn     loss             133
## 10    611   1031 2295   10         1642 hscn     loss1copy         10
## # … with 3,440 more rows
…
